…
Nested design 
========================================================
title: true


```r
lamprey %>%
  group_by(tank, stock) %>%
  summarise(n()) %>% print(n = 4)
```

```
# A tibble: 36 x 3
# Groups:   tank [9]
  tank  stock `n()`
  <chr> <fct> <int>
1 1A    0L        4
2 1A    2L        4
3 1A    20L       4
4 1A    200L      4
# … with 32 more rows
```
…
